[
    {
        "nome": "Dom Casmurro",
        "editora": "Livros Clássicos",
        "edicao": 7
    },
    {
        "nome": "Como Processar o meu Professor",
        "editora": "Direito do Aluno",
        "edicao": 5
    },
    {
        "nome": "Conceitos Avançados de Javascript",
        "editora": "Bom Programador",
        "edicao": 1
    },
    {
        "nome": "Bíblia",
        "editora": "Nova Jerusalém",
        "edicao": 502
    }
]